<svg width="41" height="40" viewBox="0 0 41 40" fill="none" xmlns="http://www.w3.org/2000/svg">
<rect x="0.671509" width="40" height="40" fill="#F8736C"/>
<g clip-path="url(#clip0_882_3439)">
<path d="M20.6715 10.9828C23.6085 10.9828 23.9568 10.9938 25.1173 11.0469C28.0983 11.1826 29.4908 12.597 29.6264 15.556C29.6796 16.7156 29.6897 17.0639 29.6897 20.0009C29.6897 22.9388 29.6787 23.2863 29.6264 24.4458C29.4898 27.4021 28.1011 28.8192 25.1173 28.9549C23.9568 29.0081 23.6103 29.0191 20.6715 29.0191C17.7345 29.0191 17.3862 29.0081 16.2266 28.9549C13.2383 28.8183 11.8532 27.3975 11.7175 24.4449C11.6643 23.2853 11.6533 22.9379 11.6533 20C11.6533 17.063 11.6653 16.7156 11.7175 15.5551C11.8541 12.597 13.2428 11.1817 16.2266 11.046C17.3871 10.9938 17.7345 10.9828 20.6715 10.9828V10.9828ZM20.6715 9C17.6841 9 17.3101 9.01283 16.1368 9.066C12.1419 9.24933 9.92176 11.4658 9.73843 15.4643C9.68434 16.6386 9.67151 17.0126 9.67151 20C9.67151 22.9874 9.68434 23.3623 9.73751 24.5357C9.92084 28.5305 12.1373 30.7507 16.1358 30.934C17.3101 30.9872 17.6841 31 20.6715 31C23.6589 31 24.0338 30.9872 25.2072 30.934C29.1983 30.7507 31.424 28.5342 31.6046 24.5357C31.6587 23.3623 31.6715 22.9874 31.6715 20C31.6715 17.0126 31.6587 16.6386 31.6055 15.4653C31.4258 11.4741 29.2066 9.25025 25.2081 9.06692C24.0338 9.01283 23.6589 9 20.6715 9V9ZM20.6715 14.3515C17.5521 14.3515 15.023 16.8806 15.023 20C15.023 23.1194 17.5521 25.6494 20.6715 25.6494C23.7909 25.6494 26.32 23.1203 26.32 20C26.32 16.8806 23.7909 14.3515 20.6715 14.3515ZM20.6715 23.6667C18.6466 23.6667 17.0048 22.0258 17.0048 20C17.0048 17.9751 18.6466 16.3333 20.6715 16.3333C22.6964 16.3333 24.3382 17.9751 24.3382 20C24.3382 22.0258 22.6964 23.6667 20.6715 23.6667ZM26.5437 12.8088C25.814 12.8088 25.2228 13.4 25.2228 14.1287C25.2228 14.8575 25.814 15.4487 26.5437 15.4487C27.2724 15.4487 27.8628 14.8575 27.8628 14.1287C27.8628 13.4 27.2724 12.8088 26.5437 12.8088Z" fill="white"/>
</g>
<defs>
<clipPath id="clip0_882_3439">
<rect width="22" height="22" fill="white" transform="translate(9.67151 9)"/>
</clipPath>
</defs>
</svg>
